2021-10-21 10:14:12,317 — utils.load_meta — INFO - 6098 — load_config:19 — [None] Bot Environment is :dev
2021-10-21 10:14:12,491 — db.tracker_store_connection — INFO - 6098 — load_config:23 — Bot Environment is :dev
2021-10-21 10:14:12,492 — db.tracker_store_connection — INFO - 6098 — load_config:28 — Loading endpoints_dev.yml
2021-10-21 10:14:12,524 — db.tracker_store_connection — INFO - 6098 — load_config:23 — Bot Environment is :dev
2021-10-21 10:14:12,525 — db.tracker_store_connection — INFO - 6098 — load_config:28 — Loading endpoints_dev.yml
2021-10-21 10:14:12,545 — db.tracker_store_connection — INFO - 6098 — __init__:316 — Successfully Connected to the Redis Database!!!
2021-10-21 10:14:12,546 — db.tracker_store_connection — INFO - 6098 — load_config:23 — Bot Environment is :dev
2021-10-21 10:14:12,546 — db.tracker_store_connection — INFO - 6098 — load_config:28 — Loading endpoints_dev.yml
2021-10-21 10:14:12,636 — db.tracker_store_connection — INFO - 6098 — __init__:99 — Connected to the database
2021-10-21 10:14:12,725 — db.tracker_store_connection — INFO - 6098 — load_config:23 — Bot Environment is :dev
2021-10-21 10:14:12,726 — db.tracker_store_connection — INFO - 6098 — load_config:28 — Loading endpoints_dev.yml
2021-10-21 10:14:12,753 — db.tracker_store_connection — INFO - 6098 — load_config:23 — Bot Environment is :dev
2021-10-21 10:14:12,754 — db.tracker_store_connection — INFO - 6098 — load_config:28 — Loading endpoints_dev.yml
2021-10-21 10:14:12,766 — db.tracker_store_connection — INFO - 6098 — __init__:99 — Connected to the database
2021-10-21 10:14:12,768 — db.tracker_store_connection — INFO - 6098 — load_config:23 — Bot Environment is :dev
2021-10-21 10:14:12,769 — db.tracker_store_connection — INFO - 6098 — load_config:28 — Loading endpoints_dev.yml
2021-10-21 10:14:12,781 — db.tracker_store_connection — INFO - 6098 — __init__:316 — Successfully Connected to the Redis Database!!!
2021-10-21 04:44:12 INFO     rasa_sdk.endpoint  - Starting action endpoint server...
2021-10-21 10:14:13,215 — db.tracker_store_connection — INFO - 6098 — load_config:23 — Bot Environment is :dev
2021-10-21 10:14:13,216 — db.tracker_store_connection — INFO - 6098 — load_config:28 — Loading endpoints_dev.yml
2021-10-21 10:14:13,239 — db.tracker_store_connection — INFO - 6098 — load_config:23 — Bot Environment is :dev
2021-10-21 10:14:13,240 — db.tracker_store_connection — INFO - 6098 — load_config:28 — Loading endpoints_dev.yml
2021-10-21 10:14:13,307 — __main__ — INFO - 6119 — serve:55 — 
Loading NLU Model

2021-10-21 10:14:13,309 — __main__ — INFO - 6119 — serve:56 — Environment is : local
2021-10-21 10:14:13,310 — __main__ — INFO - 6119 — serve:63 — Connecting to action url http://localhost:5055/webhook
2021-10-21 10:14:13,311 — __main__ — INFO - 6119 — serve:64 — Connecting to nlu url ../models/nlu
2021-10-21 10:14:13,534 — utils.load_meta — INFO - 6097 — load_config:19 — [None] Bot Environment is :dev
2021-10-21 10:14:13,696 — db.tracker_store_connection — INFO - 6097 — load_config:23 — Bot Environment is :dev
2021-10-21 10:14:13,698 — db.tracker_store_connection — INFO - 6097 — load_config:28 — Loading endpoints_dev.yml
2021-10-21 10:14:13,726 — db.tracker_store_connection — INFO - 6097 — load_config:23 — Bot Environment is :dev
2021-10-21 10:14:13,727 — db.tracker_store_connection — INFO - 6097 — load_config:28 — Loading endpoints_dev.yml
2021-10-21 10:14:13,744 — db.tracker_store_connection — INFO - 6097 — __init__:316 — Successfully Connected to the Redis Database!!!
2021-10-21 10:14:13,745 — db.tracker_store_connection — INFO - 6097 — load_config:23 — Bot Environment is :dev
2021-10-21 10:14:13,746 — db.tracker_store_connection — INFO - 6097 — load_config:28 — Loading endpoints_dev.yml
2021-10-21 10:14:13,767 — db.tracker_store_connection — INFO - 6097 — __init__:99 — Connected to the database
2021-10-21 10:14:14,928 — db.tracker_store_connection — INFO - 6097 — __init__:576 — Haptik url is : 172.16.22.5:8081
2021-10-21 10:14:15,985 — db.tracker_store_connection — INFO - 6097 — __init__:586 — Successfully Connected to the haptik date server
2021-10-21 10:14:15,108 — db.tracker_store_connection — INFO - 6097 — __init__:601 — Successfully Connected to the haptik time server
2021-10-21 10:14:15,186 — db.tracker_store_connection — INFO - 6097 — load_config:23 — Bot Environment is :dev
2021-10-21 10:14:15,189 — db.tracker_store_connection — INFO - 6097 — load_config:28 — Loading endpoints_dev.yml
2021-10-21 10:14:15,216 — db.tracker_store_connection — INFO - 6097 — load_config:23 — Bot Environment is :dev
2021-10-21 10:14:15,217 — db.tracker_store_connection — INFO - 6097 — load_config:28 — Loading endpoints_dev.yml
2021-10-21 10:14:15,234 — db.tracker_store_connection — INFO - 6097 — __init__:316 — Successfully Connected to the Redis Database!!!
2021-10-21 10:14:15 INFO     rasa_sdk.executor  - Registered function for 'action_fallback'.
2021-10-21 10:14:15 INFO     rasa_sdk.executor  - Registered function for 'action_repeat'.
2021-10-21 10:14:15 INFO     rasa_sdk.executor  - Registered function for 'action_intial'.
2021-10-21 10:14:15 INFO     rasa_sdk.executor  - Registered function for 'action_EMI'.
2021-10-21 10:14:15 INFO     rasa_sdk.executor  - Registered function for 'action_thanks'.
2021-10-21 10:14:15 INFO     rasa_sdk.executor  - Registered function for 'action_later'.
2021-10-21 10:14:15 INFO     rasa_sdk.executor  - Registered function for 'action_payment'.
2021-10-21 10:14:15 INFO     rasa_sdk.executor  - Registered function for 'action_covid'.
2021-10-21 10:14:15 INFO     rasa_sdk.executor  - Registered function for 'action_sorry'.
2021-10-21 10:14:15 INFO     rasa_sdk.executor  - Registered function for 'action_paylater'.
2021-10-21 10:14:15 INFO     rasa_sdk.executor  - Registered function for 'action_connect'.
2021-10-21 10:14:15 INFO     rasa_sdk.endpoint  - Action endpoint is up and running on http://localhost:5055
2021-10-21 04:44:16.224731: W tensorflow/stream_executor/platform/default/dso_loader.cc:55] Could not load dynamic library 'libnvinfer.so.6'; dlerror: libnvinfer.so.6: cannot open shared object file: No such file or directory
2021-10-21 04:44:16.333252: W tensorflow/stream_executor/platform/default/dso_loader.cc:55] Could not load dynamic library 'libnvinfer_plugin.so.6'; dlerror: libnvinfer_plugin.so.6: cannot open shared object file: No such file or directory
2021-10-21 04:44:16.333607: W tensorflow/compiler/tf2tensorrt/utils/py_utils.cc:30] Cannot dlopen some TensorRT libraries. If you would like to use Nvidia GPU with TensorRT, please make sure the missing libraries mentioned above are installed properly.
2021-10-21 04:44:17.508196: W tensorflow/stream_executor/platform/default/dso_loader.cc:55] Could not load dynamic library 'libcudart.so.10.1'; dlerror: libcudart.so.10.1: cannot open shared object file: No such file or directory
2021-10-21 04:44:17.508602: I tensorflow/stream_executor/cuda/cudart_stub.cc:29] Ignore above cudart dlerror if you do not have a GPU set up on your machine.
2021-10-21 04:44:36.989481: W tensorflow/stream_executor/platform/default/dso_loader.cc:55] Could not load dynamic library 'libcuda.so.1'; dlerror: libcuda.so.1: cannot open shared object file: No such file or directory
2021-10-21 04:44:37.012303: E tensorflow/stream_executor/cuda/cuda_driver.cc:351] failed call to cuInit: UNKNOWN ERROR (303)
2021-10-21 04:44:37.022378: I tensorflow/stream_executor/cuda/cuda_diagnostics.cc:156] kernel driver does not appear to be running on this host (c6cc7ff7feec): /proc/driver/nvidia/version does not exist
2021-10-21 04:44:37.045884: I tensorflow/core/platform/cpu_feature_guard.cc:142] Your CPU supports instructions that this TensorFlow binary was not compiled to use: AVX2 FMA
2021-10-21 04:44:37.089337: I tensorflow/core/platform/profile_utils/cpu_utils.cc:94] CPU Frequency: 2711995000 Hz
2021-10-21 04:44:37.135607: I tensorflow/compiler/xla/service/service.cc:168] XLA service 0x4e91140 initialized for platform Host (this does not guarantee that XLA will be used). Devices:
2021-10-21 04:44:37.162695: I tensorflow/compiler/xla/service/service.cc:176]   StreamExecutor device (0): Host, Default Version
2021-10-21 04:44:41.339963: W tensorflow/core/kernels/data/generator_dataset_op.cc:103] Error occurred when finalizing GeneratorDataset iterator: Cancelled: Operation was cancelled
WARNING:tensorflow:AutoGraph could not transform <bound method DIET.batch_predict of <rasa.nlu.classifiers.diet_classifier.DIET object at 0x7f13f147fe10>> and will run it as-is.
Please report this to the TensorFlow team. When filing the bug, set the verbosity to 10 (on Linux, `export AUTOGRAPH_VERBOSITY=10`) and attach the full output.
Cause: module 'gast' has no attribute 'Num'
WARNING:tensorflow:AutoGraph could not transform <bound method DenseForSparse.call of <rasa.utils.tensorflow.layers.DenseForSparse object at 0x7f13f146fbe0>> and will run it as-is.
Please report this to the TensorFlow team. When filing the bug, set the verbosity to 10 (on Linux, `export AUTOGRAPH_VERBOSITY=10`) and attach the full output.
Cause: module 'gast' has no attribute 'Num'
WARNING:tensorflow:AutoGraph could not transform <bound method Ffnn.call of <rasa.utils.tensorflow.layers.Ffnn object at 0x7f13f146f240>> and will run it as-is.
Please report this to the TensorFlow team. When filing the bug, set the verbosity to 10 (on Linux, `export AUTOGRAPH_VERBOSITY=10`) and attach the full output.
Cause: module 'gast' has no attribute 'Num'
WARNING:tensorflow:AutoGraph could not transform <bound method TransformerEncoder.call of <rasa.utils.tensorflow.transformer.TransformerEncoder object at 0x7f13f146f1d0>> and will run it as-is.
Please report this to the TensorFlow team. When filing the bug, set the verbosity to 10 (on Linux, `export AUTOGRAPH_VERBOSITY=10`) and attach the full output.
Cause: module 'gast' has no attribute 'Num'
WARNING:tensorflow:AutoGraph could not transform <bound method DenseWithSparseWeights.call of <rasa.utils.tensorflow.layers.DenseWithSparseWeights object at 0x7f13f146cda0>> and will run it as-is.
Please report this to the TensorFlow team. When filing the bug, set the verbosity to 10 (on Linux, `export AUTOGRAPH_VERBOSITY=10`) and attach the full output.
Cause: Bad argument number for Name: 3, expecting 4
WARNING:tensorflow:AutoGraph could not transform <bound method TransformerEncoderLayer.call of <rasa.utils.tensorflow.transformer.TransformerEncoderLayer object at 0x7f13f146c630>> and will run it as-is.
Please report this to the TensorFlow team. When filing the bug, set the verbosity to 10 (on Linux, `export AUTOGRAPH_VERBOSITY=10`) and attach the full output.
Cause: module 'gast' has no attribute 'Num'
WARNING:tensorflow:AutoGraph could not transform <bound method MultiHeadAttention.call of <rasa.utils.tensorflow.transformer.MultiHeadAttention object at 0x7f13f146c0f0>> and will run it as-is.
Please report this to the TensorFlow team. When filing the bug, set the verbosity to 10 (on Linux, `export AUTOGRAPH_VERBOSITY=10`) and attach the full output.
Cause: module 'gast' has no attribute 'Num'
WARNING:tensorflow:AutoGraph could not transform <bound method DenseWithSparseWeights.call of <rasa.utils.tensorflow.layers.DenseWithSparseWeights object at 0x7f13f1469f60>> and will run it as-is.
Please report this to the TensorFlow team. When filing the bug, set the verbosity to 10 (on Linux, `export AUTOGRAPH_VERBOSITY=10`) and attach the full output.
Cause: Bad argument number for Name: 3, expecting 4
WARNING:tensorflow:AutoGraph could not transform <bound method DenseWithSparseWeights.call of <rasa.utils.tensorflow.layers.DenseWithSparseWeights object at 0x7f13f1469a20>> and will run it as-is.
Please report this to the TensorFlow team. When filing the bug, set the verbosity to 10 (on Linux, `export AUTOGRAPH_VERBOSITY=10`) and attach the full output.
Cause: Bad argument number for Name: 3, expecting 4
WARNING:tensorflow:AutoGraph could not transform <bound method DenseWithSparseWeights.call of <rasa.utils.tensorflow.layers.DenseWithSparseWeights object at 0x7f13f14695c0>> and will run it as-is.
Please report this to the TensorFlow team. When filing the bug, set the verbosity to 10 (on Linux, `export AUTOGRAPH_VERBOSITY=10`) and attach the full output.
Cause: Bad argument number for Name: 3, expecting 4
WARNING:tensorflow:AutoGraph could not transform <bound method DenseWithSparseWeights.call of <rasa.utils.tensorflow.layers.DenseWithSparseWeights object at 0x7f13f1469160>> and will run it as-is.
Please report this to the TensorFlow team. When filing the bug, set the verbosity to 10 (on Linux, `export AUTOGRAPH_VERBOSITY=10`) and attach the full output.
Cause: Bad argument number for Name: 3, expecting 4
WARNING:tensorflow:AutoGraph could not transform <bound method DenseWithSparseWeights.call of <rasa.utils.tensorflow.layers.DenseWithSparseWeights object at 0x7f13f1466860>> and will run it as-is.
Please report this to the TensorFlow team. When filing the bug, set the verbosity to 10 (on Linux, `export AUTOGRAPH_VERBOSITY=10`) and attach the full output.
Cause: Bad argument number for Name: 3, expecting 4
WARNING:tensorflow:AutoGraph could not transform <bound method DenseWithSparseWeights.call of <rasa.utils.tensorflow.layers.DenseWithSparseWeights object at 0x7f13f1466390>> and will run it as-is.
Please report this to the TensorFlow team. When filing the bug, set the verbosity to 10 (on Linux, `export AUTOGRAPH_VERBOSITY=10`) and attach the full output.
Cause: Bad argument number for Name: 3, expecting 4
WARNING:tensorflow:AutoGraph could not transform <bound method TransformerEncoderLayer.call of <rasa.utils.tensorflow.transformer.TransformerEncoderLayer object at 0x7f13f1462da0>> and will run it as-is.
Please report this to the TensorFlow team. When filing the bug, set the verbosity to 10 (on Linux, `export AUTOGRAPH_VERBOSITY=10`) and attach the full output.
Cause: module 'gast' has no attribute 'Num'
WARNING:tensorflow:AutoGraph could not transform <bound method MultiHeadAttention.call of <rasa.utils.tensorflow.transformer.MultiHeadAttention object at 0x7f13f14622b0>> and will run it as-is.
Please report this to the TensorFlow team. When filing the bug, set the verbosity to 10 (on Linux, `export AUTOGRAPH_VERBOSITY=10`) and attach the full output.
Cause: module 'gast' has no attribute 'Num'
WARNING:tensorflow:AutoGraph could not transform <bound method DenseWithSparseWeights.call of <rasa.utils.tensorflow.layers.DenseWithSparseWeights object at 0x7f13f1462080>> and will run it as-is.
Please report this to the TensorFlow team. When filing the bug, set the verbosity to 10 (on Linux, `export AUTOGRAPH_VERBOSITY=10`) and attach the full output.
Cause: Bad argument number for Name: 3, expecting 4
WARNING:tensorflow:AutoGraph could not transform <bound method DenseWithSparseWeights.call of <rasa.utils.tensorflow.layers.DenseWithSparseWeights object at 0x7f13f145fb00>> and will run it as-is.
Please report this to the TensorFlow team. When filing the bug, set the verbosity to 10 (on Linux, `export AUTOGRAPH_VERBOSITY=10`) and attach the full output.
Cause: Bad argument number for Name: 3, expecting 4
WARNING:tensorflow:AutoGraph could not transform <bound method DenseWithSparseWeights.call of <rasa.utils.tensorflow.layers.DenseWithSparseWeights object at 0x7f13f145f5c0>> and will run it as-is.
Please report this to the TensorFlow team. When filing the bug, set the verbosity to 10 (on Linux, `export AUTOGRAPH_VERBOSITY=10`) and attach the full output.
Cause: Bad argument number for Name: 3, expecting 4
WARNING:tensorflow:AutoGraph could not transform <bound method DenseWithSparseWeights.call of <rasa.utils.tensorflow.layers.DenseWithSparseWeights object at 0x7f13f145f0f0>> and will run it as-is.
Please report this to the TensorFlow team. When filing the bug, set the verbosity to 10 (on Linux, `export AUTOGRAPH_VERBOSITY=10`) and attach the full output.
Cause: Bad argument number for Name: 3, expecting 4
WARNING:tensorflow:AutoGraph could not transform <bound method DenseWithSparseWeights.call of <rasa.utils.tensorflow.layers.DenseWithSparseWeights object at 0x7f13f145b630>> and will run it as-is.
Please report this to the TensorFlow team. When filing the bug, set the verbosity to 10 (on Linux, `export AUTOGRAPH_VERBOSITY=10`) and attach the full output.
Cause: Bad argument number for Name: 3, expecting 4
WARNING:tensorflow:AutoGraph could not transform <bound method DenseWithSparseWeights.call of <rasa.utils.tensorflow.layers.DenseWithSparseWeights object at 0x7f13f145b0f0>> and will run it as-is.
Please report this to the TensorFlow team. When filing the bug, set the verbosity to 10 (on Linux, `export AUTOGRAPH_VERBOSITY=10`) and attach the full output.
Cause: Bad argument number for Name: 3, expecting 4
WARNING:tensorflow:AutoGraph could not transform <bound method Ffnn.call of <rasa.utils.tensorflow.layers.Ffnn object at 0x7f13f1452eb8>> and will run it as-is.
Please report this to the TensorFlow team. When filing the bug, set the verbosity to 10 (on Linux, `export AUTOGRAPH_VERBOSITY=10`) and attach the full output.
Cause: module 'gast' has no attribute 'Num'
WARNING:tensorflow:AutoGraph could not transform <bound method Embed.call of <rasa.utils.tensorflow.layers.Embed object at 0x7f13f14522e8>> and will run it as-is.
Please report this to the TensorFlow team. When filing the bug, set the verbosity to 10 (on Linux, `export AUTOGRAPH_VERBOSITY=10`) and attach the full output.
Cause: Bad argument number for Name: 3, expecting 4
WARNING:tensorflow:AutoGraph could not transform <bound method Embed.call of <rasa.utils.tensorflow.layers.Embed object at 0x7f13f1452d68>> and will run it as-is.
Please report this to the TensorFlow team. When filing the bug, set the verbosity to 10 (on Linux, `export AUTOGRAPH_VERBOSITY=10`) and attach the full output.
Cause: Bad argument number for Name: 3, expecting 4
2021-10-21 10:14:43,033 — __main__ — INFO - 6119 — serve:68 — 
NLU Model Loaded

2021-10-21 04:44:45.032584: W tensorflow/core/kernels/data/generator_dataset_op.cc:103] Error occurred when finalizing GeneratorDataset iterator: Cancelled: Operation was cancelled
WARNING:tensorflow:AutoGraph could not transform <bound method TED.batch_predict of <rasa.core.policies.ted_policy.TED object at 0x7f13ee2f2588>> and will run it as-is.
Please report this to the TensorFlow team. When filing the bug, set the verbosity to 10 (on Linux, `export AUTOGRAPH_VERBOSITY=10`) and attach the full output.
Cause: module 'gast' has no attribute 'Num'
WARNING:tensorflow:AutoGraph could not transform <bound method Ffnn.call of <rasa.utils.tensorflow.layers.Ffnn object at 0x7f13d4683588>> and will run it as-is.
Please report this to the TensorFlow team. When filing the bug, set the verbosity to 10 (on Linux, `export AUTOGRAPH_VERBOSITY=10`) and attach the full output.
Cause: module 'gast' has no attribute 'Num'
WARNING:tensorflow:AutoGraph could not transform <bound method TransformerEncoder.call of <rasa.utils.tensorflow.transformer.TransformerEncoder object at 0x7f13d4027be0>> and will run it as-is.
Please report this to the TensorFlow team. When filing the bug, set the verbosity to 10 (on Linux, `export AUTOGRAPH_VERBOSITY=10`) and attach the full output.
Cause: module 'gast' has no attribute 'Num'
WARNING:tensorflow:AutoGraph could not transform <bound method DenseWithSparseWeights.call of <rasa.utils.tensorflow.layers.DenseWithSparseWeights object at 0x7f13d4687f28>> and will run it as-is.
Please report this to the TensorFlow team. When filing the bug, set the verbosity to 10 (on Linux, `export AUTOGRAPH_VERBOSITY=10`) and attach the full output.
Cause: Bad argument number for Name: 3, expecting 4
WARNING:tensorflow:AutoGraph could not transform <bound method TransformerEncoderLayer.call of <rasa.utils.tensorflow.transformer.TransformerEncoderLayer object at 0x7f13d46e94a8>> and will run it as-is.
Please report this to the TensorFlow team. When filing the bug, set the verbosity to 10 (on Linux, `export AUTOGRAPH_VERBOSITY=10`) and attach the full output.
Cause: module 'gast' has no attribute 'Num'
WARNING:tensorflow:AutoGraph could not transform <bound method MultiHeadAttention.call of <rasa.utils.tensorflow.transformer.MultiHeadAttention object at 0x7f13d46e9b70>> and will run it as-is.
Please report this to the TensorFlow team. When filing the bug, set the verbosity to 10 (on Linux, `export AUTOGRAPH_VERBOSITY=10`) and attach the full output.
Cause: module 'gast' has no attribute 'Num'
WARNING:tensorflow:AutoGraph could not transform <bound method DenseWithSparseWeights.call of <rasa.utils.tensorflow.layers.DenseWithSparseWeights object at 0x7f13d46e9400>> and will run it as-is.
Please report this to the TensorFlow team. When filing the bug, set the verbosity to 10 (on Linux, `export AUTOGRAPH_VERBOSITY=10`) and attach the full output.
Cause: Bad argument number for Name: 3, expecting 4
WARNING:tensorflow:AutoGraph could not transform <bound method DenseWithSparseWeights.call of <rasa.utils.tensorflow.layers.DenseWithSparseWeights object at 0x7f13d46f4208>> and will run it as-is.
Please report this to the TensorFlow team. When filing the bug, set the verbosity to 10 (on Linux, `export AUTOGRAPH_VERBOSITY=10`) and attach the full output.
Cause: Bad argument number for Name: 3, expecting 4
WARNING:tensorflow:AutoGraph could not transform <bound method DenseWithSparseWeights.call of <rasa.utils.tensorflow.layers.DenseWithSparseWeights object at 0x7f13d46f4128>> and will run it as-is.
Please report this to the TensorFlow team. When filing the bug, set the verbosity to 10 (on Linux, `export AUTOGRAPH_VERBOSITY=10`) and attach the full output.
Cause: Bad argument number for Name: 3, expecting 4
WARNING:tensorflow:AutoGraph could not transform <bound method DenseWithSparseWeights.call of <rasa.utils.tensorflow.layers.DenseWithSparseWeights object at 0x7f13d46de1d0>> and will run it as-is.
Please report this to the TensorFlow team. When filing the bug, set the verbosity to 10 (on Linux, `export AUTOGRAPH_VERBOSITY=10`) and attach the full output.
Cause: Bad argument number for Name: 3, expecting 4
WARNING:tensorflow:AutoGraph could not transform <bound method DenseWithSparseWeights.call of <rasa.utils.tensorflow.layers.DenseWithSparseWeights object at 0x7f13d46de5c0>> and will run it as-is.
Please report this to the TensorFlow team. When filing the bug, set the verbosity to 10 (on Linux, `export AUTOGRAPH_VERBOSITY=10`) and attach the full output.
Cause: Bad argument number for Name: 3, expecting 4
WARNING:tensorflow:AutoGraph could not transform <bound method DenseWithSparseWeights.call of <rasa.utils.tensorflow.layers.DenseWithSparseWeights object at 0x7f13d46de518>> and will run it as-is.
Please report this to the TensorFlow team. When filing the bug, set the verbosity to 10 (on Linux, `export AUTOGRAPH_VERBOSITY=10`) and attach the full output.
Cause: Bad argument number for Name: 3, expecting 4
WARNING:tensorflow:AutoGraph could not transform <bound method Embed.call of <rasa.utils.tensorflow.layers.Embed object at 0x7f13d46d6080>> and will run it as-is.
Please report this to the TensorFlow team. When filing the bug, set the verbosity to 10 (on Linux, `export AUTOGRAPH_VERBOSITY=10`) and attach the full output.
Cause: Bad argument number for Name: 3, expecting 4
2021-10-21 10:14:45,632 — __main__ — INFO - 6119 — serve:72 — 
 Core Model Loaded and Ready to Serve!

2021-10-21 10:14:45,633 — __main__ — INFO - 6119 — serve:73 — ====================================================================================================
2021-10-21 10:14:45,634 — __main__ — INFO - 6119 — serve:75 — Started on port -> 5002
Exception occurred while handling uri: 'http://localhost:5012/webhooks/rest/readycheck'
Traceback (most recent call last):
  File "/usr/local/lib/python3.6/dist-packages/sanic/app.py", line 940, in handle_request
    handler, args, kwargs, uri, name = self.router.get(request)
  File "/usr/local/lib/python3.6/dist-packages/sanic/router.py", line 411, in get
    return self._get(request.path, request.method, "")
  File "/usr/local/lib/python3.6/dist-packages/sanic/router.py", line 452, in _get
    raise method_not_supported
sanic.exceptions.MethodNotSupported: Method POST not allowed for URL /webhooks/rest/readycheck
2021-10-21 10:15:18,328 — custom_connector — INFO - 6119 — readycheck:203 — [None] ==++=readycheck=++==
2021-10-21 10:15:28,724 — custom_connector — INFO - 6119 — livecheck:198 — [None] ==++=livecheck=++==
2021-10-21 10:16:58,503 — custom_connector — INFO - 6119 — livecheck:198 — [None] ==++=livecheck=++==
Exception occurred while handling uri: 'http://localhost:5012/webhooks/rest/readych'
Traceback (most recent call last):
  File "/usr/local/lib/python3.6/dist-packages/sanic/app.py", line 940, in handle_request
    handler, args, kwargs, uri, name = self.router.get(request)
  File "/usr/local/lib/python3.6/dist-packages/sanic/router.py", line 411, in get
    return self._get(request.path, request.method, "")
  File "/usr/local/lib/python3.6/dist-packages/sanic/router.py", line 475, in _get
    raise NotFound("Requested URL {} not found".format(url))
sanic.exceptions.NotFound: Requested URL /webhooks/rest/readych not found
2021-10-21 10:18:02,168 — custom_connector — INFO - 6119 — readycheck:203 — [None] ==++=readycheck=++==
Exception occurred while handling uri: 'http://localhost:5012/webhooks/rest//initial_message'
Traceback (most recent call last):
  File "/usr/local/lib/python3.6/dist-packages/sanic/app.py", line 940, in handle_request
    handler, args, kwargs, uri, name = self.router.get(request)
  File "/usr/local/lib/python3.6/dist-packages/sanic/router.py", line 411, in get
    return self._get(request.path, request.method, "")
  File "/usr/local/lib/python3.6/dist-packages/sanic/router.py", line 475, in _get
    raise NotFound("Requested URL {} not found".format(url))
sanic.exceptions.NotFound: Requested URL /webhooks/rest//initial_message not found
2021-10-21 10:21:17,151 — custom_connector — INFO - 6119 — initial_message:216 — [None] Argument Recieved are: {}
2021-10-21 10:21:17,155 — custom_connector — ERROR - 6119 — initial_message:221 — [None] 
Traceback (most recent call last):
  File "/hone/project/main/custom_connector.py", line 217, in initial_message
    logger.info('Mobile Number recieved is: '+str(request.args['mobile'][0]))
KeyError: 'mobile'
2021-10-21 10:21:52,184 — custom_connector — INFO - 6119 — initial_message:216 — [None] Argument Recieved are: {}
2021-10-21 10:21:52,185 — custom_connector — ERROR - 6119 — initial_message:221 — [None] 
Traceback (most recent call last):
  File "/hone/project/main/custom_connector.py", line 217, in initial_message
    logger.info('Mobile Number recieved is: '+str(request.args['mobile'][0]))
KeyError: 'mobile'
Exception occurred while handling uri: 'http://localhost:5012/webhooks/rest/initial_message'
Traceback (most recent call last):
  File "/usr/local/lib/python3.6/dist-packages/sanic/app.py", line 940, in handle_request
    handler, args, kwargs, uri, name = self.router.get(request)
  File "/usr/local/lib/python3.6/dist-packages/sanic/router.py", line 411, in get
    return self._get(request.path, request.method, "")
  File "/usr/local/lib/python3.6/dist-packages/sanic/router.py", line 452, in _get
    raise method_not_supported
sanic.exceptions.MethodNotSupported: Method POST not allowed for URL /webhooks/rest/initial_message
Exception occurred while handling uri: 'http://localhost:5012/webhooks/rest//webhook/call_data/'
Traceback (most recent call last):
  File "/usr/local/lib/python3.6/dist-packages/sanic/app.py", line 940, in handle_request
    handler, args, kwargs, uri, name = self.router.get(request)
  File "/usr/local/lib/python3.6/dist-packages/sanic/router.py", line 411, in get
    return self._get(request.path, request.method, "")
  File "/usr/local/lib/python3.6/dist-packages/sanic/router.py", line 475, in _get
    raise NotFound("Requested URL {} not found".format(url))
sanic.exceptions.NotFound: Requested URL /webhooks/rest//webhook/call_data/ not found
2021-10-21 10:23:44,884 — custom_connector — INFO - 6119 — call_data:232 — [None] =============Entered call status function============
2021-10-21 10:23:44,885 — custom_connector — ERROR - 6119 — call_data:333 — [None] Error - Call status dictionary not recieved!
Exception occurred while handling uri: 'http://localhost:5012/webhooks/rest/webhook/intiate'
Traceback (most recent call last):
  File "/usr/local/lib/python3.6/dist-packages/sanic/app.py", line 940, in handle_request
    handler, args, kwargs, uri, name = self.router.get(request)
  File "/usr/local/lib/python3.6/dist-packages/sanic/router.py", line 411, in get
    return self._get(request.path, request.method, "")
  File "/usr/local/lib/python3.6/dist-packages/sanic/router.py", line 475, in _get
    raise NotFound("Requested URL {} not found".format(url))
sanic.exceptions.NotFound: Requested URL /webhooks/rest/webhook/intiate not found
Exception occurred while handling uri: 'http://localhost:5012/webhooks/rest/webhook/initiate'
Traceback (most recent call last):
  File "/usr/local/lib/python3.6/dist-packages/sanic/app.py", line 940, in handle_request
    handler, args, kwargs, uri, name = self.router.get(request)
  File "/usr/local/lib/python3.6/dist-packages/sanic/router.py", line 411, in get
    return self._get(request.path, request.method, "")
  File "/usr/local/lib/python3.6/dist-packages/sanic/router.py", line 475, in _get
    raise NotFound("Requested URL {} not found".format(url))
sanic.exceptions.NotFound: Requested URL /webhooks/rest/webhook/initiate not found
2021-10-21 10:27:24,501 — custom_connector — INFO - 6119 — initiate:355 — [None] Recieved the call request for inserting to DB : {'sender': '2243238', 'phone': '9462874402', 'message': 'after 2 days'}
2021-10-21 10:27:24,501 — custom_connector — ERROR - 6119 — initiate:424 — [None] Exception!! When inserting the new details to DB
Traceback (most recent call last):
  File "/hone/project/main/custom_connector.py", line 363, in initiate
    "full_name" : user_details['name'],
KeyError: 'name'
2021-10-21 10:38:26,126 — custom_connector — INFO - 6119 — initiate:355 — [None] Recieved the call request for inserting to DB : {'ast_triggered_date': '2021-10-20T17:01:35.000+00:00', 'active_call': 0, 'answered_seq': 0, 'sequence_number': 1, 'no_answer_seq': 1, 'full_name': 'Mayank', 'phone_number': 9462874402, 'phone_number2': 9462874402, 'duplicate': 1, 'stage': 'initial', 'flow_id': 'mayank-zest', 'language': 'english', 'flow_type': 'main', 'balance': 6000, 'due_date': '29 october', 'call_date': '20/10/2021', 'call_status': 'NO ANSWER', 'call_type': 'Outbound', 'conversation_end_time': '2021-10-20T16:29:30.000+00:00', 'conversation_id': '16347275697036707', 'conversation_log': 'Array', 'conversation_start_time': '', 'destination_phone': '9462874402|mayank-zest;;mayank', 'ringing_time': 0, 'setup_time': 0, 'source_phone': '68100753', 'STAGE': 'DSCN', 'action': 'action_yes_payment', 'call_comp_flag': 'no', 'channel': 'telephony'}
2021-10-21 10:38:26,128 — custom_connector — ERROR - 6119 — initiate:424 — [None] Exception!! When inserting the new details to DB
Traceback (most recent call last):
  File "/hone/project/main/custom_connector.py", line 363, in initiate
    "full_name" : user_details['name'],
KeyError: 'name'
2021-10-21 10:38:38,862 — custom_connector — INFO - 6119 — initiate:355 — [None] Recieved the call request for inserting to DB : {'ast_triggered_date': '2021-10-20T17:01:35.000+00:00', 'active_call': 0, 'answered_seq': 0, 'sequence_number': 1, 'no_answer_seq': 1, 'name': 'Mayank', 'phone_number': 9462874402, 'phone_number2': 9462874402, 'duplicate': 1, 'stage': 'initial', 'flow_id': 'mayank-zest', 'language': 'english', 'flow_type': 'main', 'balance': 6000, 'due_date': '29 october', 'call_date': '20/10/2021', 'call_status': 'NO ANSWER', 'call_type': 'Outbound', 'conversation_end_time': '2021-10-20T16:29:30.000+00:00', 'conversation_id': '16347275697036707', 'conversation_log': 'Array', 'conversation_start_time': '', 'destination_phone': '9462874402|mayank-zest;;mayank', 'ringing_time': 0, 'setup_time': 0, 'source_phone': '68100753', 'STAGE': 'DSCN', 'action': 'action_yes_payment', 'call_comp_flag': 'no', 'channel': 'telephony'}
2021-10-21 10:38:38,863 — custom_connector — ERROR - 6119 — initiate:424 — [None] Exception!! When inserting the new details to DB
Traceback (most recent call last):
  File "/hone/project/main/custom_connector.py", line 364, in initiate
    "phone_number" : int(user_details['phone']),
KeyError: 'phone'
2021-10-21 10:39:08,467 — custom_connector — INFO - 6119 — initiate:355 — [None] Recieved the call request for inserting to DB : {'ast_triggered_date': '2021-10-20T17:01:35.000+00:00', 'active_call': 0, 'answered_seq': 0, 'sequence_number': 1, 'no_answer_seq': 1, 'name': 'Mayank', 'phone': 9462874402, 'phone_number': 9462874402, 'phone_number2': 9462874402, 'duplicate': 1, 'stage': 'initial', 'flow_id': 'mayank-zest', 'language': 'english', 'flow_type': 'main', 'balance': 6000, 'due_date': '29 october', 'call_date': '20/10/2021', 'call_status': 'NO ANSWER', 'call_type': 'Outbound', 'conversation_end_time': '2021-10-20T16:29:30.000+00:00', 'conversation_id': '16347275697036707', 'conversation_log': 'Array', 'conversation_start_time': '', 'destination_phone': '9462874402|mayank-zest;;mayank', 'ringing_time': 0, 'setup_time': 0, 'source_phone': '68100753', 'STAGE': 'DSCN', 'action': 'action_yes_payment', 'call_comp_flag': 'no', 'channel': 'telephony'}
query dict is -->  {'phone_number': 9462874402}
2021-10-21 10:39:09,070 — custom_connector — INFO - 6119 — initiate:391 — [None] custom_connector: file count: 0
2021-10-21 10:39:09,072 — custom_connector — INFO - 6119 — initiate:398 — [None] Updating to DB : {'flow_id': 'mayank-zest', 'active_call': 1, 'language': 'english'}
2021-10-21 10:39:09,074 — custom_connector — INFO - 6119 — initiate:412 — [None] Adding a new record for : 9462874402
2021-10-21 10:39:09,077 — db.tracker_store_connection — INFO - 6119 — mongo_update:192 — Inserting the record
2021-10-21 10:39:09,177 — custom_connector — INFO - 6119 — initiate:416 — [None] INSERTED IN REPORT DB 
2021-10-21 10:39:09,178 — custom_connector — INFO - 6119 — initiate:421 — [None] Sending the response: {'call_status': 'Updated Call Status Successfully'}
/usr/local/lib/python3.6/dist-packages/pymongo/topology.py:150: UserWarning: MongoClient opened before fork. Create MongoClient only after forking. See PyMongo's documentation for details: http://api.mongodb.org/python/current/faq.html#is-pymongo-fork-safe
  "MongoClient opened before fork. Create MongoClient only "
Exception occurred while handling uri: 'http://localhost:5012/webhooks/rest/webhook'
Traceback (most recent call last):
  File "/usr/local/lib/python3.6/dist-packages/sanic/app.py", line 940, in handle_request
    handler, args, kwargs, uri, name = self.router.get(request)
  File "/usr/local/lib/python3.6/dist-packages/sanic/router.py", line 411, in get
    return self._get(request.path, request.method, "")
  File "/usr/local/lib/python3.6/dist-packages/sanic/router.py", line 452, in _get
    raise method_not_supported
sanic.exceptions.MethodNotSupported: Method GET not allowed for URL /webhooks/rest/webhook
2021-10-21 10:47:10,522 — custom_connector — INFO - 6119 — receive:430 — [None] ====================================================================================================
2021-10-21 10:47:10,526 — custom_connector — INFO - 6119 — receive:433 — [None] Request recieved : {'sender': '2243238', 'mobile': '9462874402', 'message': 'after 2 days'}
2021-10-21 10:47:10,527 — custom_connector — INFO - 6119 — receive:441 — [2243238] sender_id: 2243238 | phone number : 9462874402 | asr_text :[after 2 days] 
2021-10-21 10:47:10,529 — custom_connector — INFO - 6119 — receive:446 — [None] ASR TEXT -- after 2 days
2021-10-21 10:47:10,532 — custom_connector — INFO - 6119 — receive:451 — [None] After Extracting the request  :   || Response time : 0.005453824996948242
2021-10-21 10:47:10,533 — custom_connector — INFO - 6119 — receive:453 — [None] ASR TEXT -- after 2 days
2021-10-21 10:47:10,534 — custom_connector — INFO - 6119 — receive:464 — [None] Time Taken to Extract Parameters  : [0.00811457633972168] 
2021-10-21 10:47:10,535 — custom_connector — INFO - 6119 — receive:488 — [None] Time Taken to reach record extraction code : [0.0011990070343017578] 
2021-10-21 10:47:10,779 — custom_connector — INFO - 6119 — receive:494 — [None] Time Taken to extract record from redis : [0.2436823844909668] 
2021-10-21 10:47:10,780 — custom_connector — INFO - 6119 — receive:502 — [None] Data Not found in redis. Fetching from mongo : 
2021-10-21 10:47:10,782 — custom_connector — INFO - 6119 — receive:506 — [None] Time Taken to extract record from redis : [0.002422332763671875] 
2021-10-21 10:47:10,784 — custom_connector — INFO - 6119 — receive:519 — [None] the type of mobile is <class 'int'>   
2021-10-21 10:47:10,786 — custom_connector — INFO - 6119 — receive:528 — [2243238] query is : {'phone_number': 9462874402}
2021-10-21 10:47:10,865 — custom_connector — INFO - 6119 — receive:534 — [None] Time Taken to extract record from mongo : [{'month': 'october', 'last_triggered_date': '', 'active_call': 1, 'answered_seq': 0, 'sequence_number': 0, 'no_answer_seq': 0, 'full_name': 'Mayank', 'phone_number': 9462874402, 'phone_number2': 9462874402, 'duplicate': 1, 'gnani_test': 'gnani_test', 'call_comp_flag': '', 'call_status': '', 'stage': 'initial', 'flow_id': 'mayank-zest', 'language': 'english', 'apmt_date': '', 'city': ''}] 
2021-10-21 10:47:10,866 — custom_connector — INFO - 6119 — receive:541 — [None] Input record obtained from db is  : [{'month': 'october', 'last_triggered_date': '', 'active_call': 1, 'answered_seq': 0, 'sequence_number': 0, 'no_answer_seq': 0, 'full_name': 'Mayank', 'phone_number': 9462874402, 'phone_number2': 9462874402, 'duplicate': 1, 'gnani_test': 'gnani_test', 'call_comp_flag': '', 'call_status': '', 'stage': 'initial', 'flow_id': 'mayank-zest', 'language': 'english', 'apmt_date': '', 'city': ''}] 
2021-10-21 10:47:10,880 — db.tracker_store_connection — INFO - 6119 — mongo_add_required_keys:286 — Final Data after: {'month': 'october', 'last_triggered_date': '', 'active_call': 1, 'answered_seq': 0, 'sequence_number': 0, 'no_answer_seq': 0, 'full_name': 'Mayank', 'phone_number': 9462874402, 'phone_number2': 9462874402, 'duplicate': 1, 'gnani_test': 'gnani_test', 'call_comp_flag': '', 'call_status': '', 'stage': '', 'flow_id': 'mayank-zest', 'language': 'english', 'apmt_date': '', 'city': '', 'conversation_log': [], 'tracker_log': [], 'fallback_count': 0, 'action': '', 'sms_sent': '', 'repeat_count': 0, 'fallback_conv': [], 'call_analysis': 0, 'fallback_failure': 'no', 'repeat_failure': 'no', 'STAGE': 'DSCN', 'field': {}}
2021-10-21 10:47:10,881 — custom_connector — INFO - 6119 — receive:545 — [None] Input record obtained afrer modifying is  : [{'month': 'october', 'last_triggered_date': '', 'active_call': 1, 'answered_seq': 0, 'sequence_number': 0, 'no_answer_seq': 0, 'full_name': 'Mayank', 'phone_number': 9462874402, 'phone_number2': 9462874402, 'duplicate': 1, 'gnani_test': 'gnani_test', 'call_comp_flag': '', 'call_status': '', 'stage': '', 'flow_id': 'mayank-zest', 'language': 'english', 'apmt_date': '', 'city': '', 'conversation_log': [], 'tracker_log': [], 'fallback_count': 0, 'action': '', 'sms_sent': '', 'repeat_count': 0, 'fallback_conv': [], 'call_analysis': 0, 'fallback_failure': 'no', 'repeat_failure': 'no', 'STAGE': 'DSCN', 'field': {}}] 
2021-10-21 10:47:10,882 — custom_connector — INFO - 6119 — receive:548 — [None] mapping sender-id with dictionary from mongo database
2021-10-21 10:47:11,002 — custom_connector — INFO - 6119 — receive:553 — [None] Time Taken to extract record, modify and set to redis : [0.13623499870300293] 
2021-10-21 10:47:11,003 — custom_connector — INFO - 6119 — receive:571 — [None] Before Hitting Rasa Action Server : [0.001421213150024414] 
2021-10-21 10:47:11,635 — actions.actions — INFO - 6097 — run:376 — [2243238] Executing action : action_later
2021-10-21 10:47:12,041 — db.tracker_store_connection — INFO - 6097 — tracker_details:546 — [Intent Name:---> deny Confidence is :---> 0.9974567294120789]
2021-10-21 10:47:12,220 — db.tracker_store_connection — INFO - 6097 — tracker_details:553 — Updated stage in redis tracker_details
2021-10-21 10:47:12,303 — actions.actions — INFO - 6097 — run:388 — [2243238] language is :  english
2021-10-21 10:47:12,304 — actions.actions — INFO - 6097 — run:389 — [None] text - after 2 days
intent - deny
confidence - 0.9974567294120789
2021-10-21 10:47:12,465 — actions.actions — INFO - 6097 — run:408 — [None] None
2021-10-21 10:47:12,466 — actions.actions — INFO - 6097 — run:409 — [None] None
2021-10-21 10:47:12,827 — custom_connector — INFO - 6119 — receive:607 — [None] Response from action server ['Okay we will call you on None.Have a nice day. EOC']
2021-10-21 10:47:12,828 — custom_connector — INFO - 6119 — receive:610 — [None] Time Taken by Action Server to respond : [1.8246381282806396] 
2021-10-21 10:47:12,829 — custom_connector — INFO - 6119 — receive:621 — [None] Reply from action server : ['Okay we will call you on None.Have a nice day. EOC']
2021-10-21 10:47:12,830 — custom_connector — INFO - 6119 — receive:633 — [None] ========================================================
2021-10-21 10:47:12,833 — custom_connector — INFO - 6119 — receive:636 — [None]  Saving the Conversation  before reading redis data:   || Response time : 2.3057825565338135
2021-10-21 10:47:12,835 — custom_connector — INFO - 6119 — receive:637 — [None] ========================================================
2021-10-21 10:47:12,923 — custom_connector — INFO - 6119 — receive:643 — [None] Time Taken to fetch data from redis to store conversation logs : [0.09483766555786133] 
2021-10-21 10:47:12,924 — custom_connector — INFO - 6119 — receive:648 — [None] updated dict : {'month': 'october', 'last_triggered_date': '', 'active_call': 1, 'answered_seq': 0, 'sequence_number': 0, 'no_answer_seq': 0, 'full_name': 'Mayank', 'phone_number': 9462874402, 'phone_number2': 9462874402, 'duplicate': 1, 'gnani_test': 'gnani_test', 'call_comp_flag': 'no', 'call_status': '', 'stage': 'later', 'flow_id': 'mayank-zest', 'language': 'english', 'apmt_date': '', 'city': '', 'conversation_log': [], 'tracker_log': [{'action': 'action_later', 'asr_text': 'after 2 days', 'intent': 'deny', 'confidence': 0.9974567294120789}], 'fallback_count': 0, 'action': 'action_later', 'sms_sent': '', 'repeat_count': 0, 'fallback_conv': [], 'call_analysis': 0, 'fallback_failure': 'no', 'repeat_failure': 'no', 'STAGE': 'INTIL', 'field': {}}
2021-10-21 10:47:13,021 — custom_connector — INFO - 6119 — receive:656 — [None] Time Taken to store conversation logs : [0.0982518196105957] 
2021-10-21 10:47:13,022 — custom_connector — INFO - 6119 — receive:674 — [None] Time Taken to Send back response:Okay we will call you on None.Have a nice day. EOC | Overall response time: [2.4960777759552] 
2021-10-21 10:47:13,024 — custom_connector — INFO - 6119 — receive:676 — [None] exiting webhook method 
2021-10-21 10:47:13,106 — custom_connector — INFO - 6119 — receive:685 — [None] flow_id from user mayank-zest
2021-10-21 10:47:13,107 — custom_connector — INFO - 6119 — modify_response:59 — [None] Entering modify response function
2021-10-21 10:47:13,108 — custom_connector — INFO - 6119 — modify_response:61 — [None] Flow id is proper flow id : mayank-zest
2021-10-21 10:47:13,110 — custom_connector — INFO - 6119 — modify_response:77 — [None] flow id : mayank-zest
2021-10-21 10:47:13,113 — custom_connector — INFO - 6119 — modify_response:109 — [None] {'sender_id': '2243238', 'flow_id': 'mayank-zest', 'next_flow_id': 'mayank-zest', 'language': 'en', 'nlp_resp': 'Okay we will call you on None.Have a nice day. ', 'next_exp_utter_category': '', 'next_exp_utter_time': '', 'signal': 'EOC'}
2021-10-21 10:47:13,114 — custom_connector — INFO - 6119 — receive:696 — [None] ***Response_Text***: <sanic.response.HTTPResponse object at 0x7f13ee209d08>
